<?xml version="1.0" encoding="UTF-8" standalone="no"?>
<!-- Created with Inkscape (http://www.inkscape.org/) -->

<svg
   id="svg2"
   sodipodi:version="0.32"
   inkscape:version="1.1.1 (3bf5ae0d25, 2021-09-20, custom)"
   width="377.00049"
   height="377.00049"
   version="1.0"
   sodipodi:docname="gnu-alternative.svg"
   inkscape:output_extension="org.inkscape.output.svg.inkscape"
   inkscape:export-filename="/home/cip/kolesnik/tmp/exp-gnu-alternative.png"
   inkscape:export-xdpi="96.206894"
   inkscape:export-ydpi="96.206894"
   sodipodi:modified="true"
   xmlns:inkscape="http://www.inkscape.org/namespaces/inkscape"
   xmlns:sodipodi="http://sodipodi.sourceforge.net/DTD/sodipodi-0.dtd"
   xmlns="http://www.w3.org/2000/svg"
   xmlns:svg="http://www.w3.org/2000/svg"
   xmlns:rdf="http://www.w3.org/1999/02/22-rdf-syntax-ns#"
   xmlns:cc="http://creativecommons.org/ns#"
   xmlns:dc="http://purl.org/dc/elements/1.1/">
  <metadata
     id="metadata7">
    <rdf:RDF>
      <cc:Work
         rdf:about="">
        <dc:format>image/svg+xml</dc:format>
        <dc:type
           rdf:resource="http://purl.org/dc/dcmitype/StillImage" />
        <cc:license
           rdf:resource="http://creativecommons.org/licenses/GPL/2.0/" />
        <dc:date>Wed Nov 28 23:43:48 CET 2007</dc:date>
        <dc:creator>
          <cc:Agent>
            <dc:title>Sergiy S. Kolesnikov</dc:title>
          </cc:Agent>
        </dc:creator>
        <dc:rights>
          <cc:Agent>
            <dc:title>The Free Software Foundation (FSF)</dc:title>
          </cc:Agent>
        </dc:rights>
        <dc:relation>http://www.gnu.org/graphics/gnu-alternative.html</dc:relation>
      </cc:Work>
      <cc:License
         rdf:about="http://creativecommons.org/licenses/GPL/2.0/">
        <cc:permits
           rdf:resource="http://web.resource.org/cc/Reproduction" />
        <cc:permits
           rdf:resource="http://web.resource.org/cc/Distribution" />
        <cc:requires
           rdf:resource="http://web.resource.org/cc/Notice" />
        <cc:permits
           rdf:resource="http://web.resource.org/cc/DerivativeWorks" />
        <cc:requires
           rdf:resource="http://web.resource.org/cc/ShareAlike" />
        <cc:requires
           rdf:resource="http://web.resource.org/cc/SourceCode" />
      </cc:License>
    </rdf:RDF>
  </metadata>
  <defs
     id="defs5" />
  <sodipodi:namedview
     inkscape:window-height="1006"
     inkscape:window-width="1920"
     inkscape:pageshadow="2"
     inkscape:pageopacity="0.0"
     guidetolerance="10.0"
     gridtolerance="10.0"
     objecttolerance="10.0"
     borderopacity="1.0"
     bordercolor="#666666"
     pagecolor="#ffffff"
     id="base"
     width="290px"
     height="220px"
     inkscape:zoom="1.7871131"
     inkscape:cx="266.91092"
     inkscape:cy="180.73842"
     inkscape:window-x="0"
     inkscape:window-y="0"
     inkscape:current-layer="g3244"
     inkscape:pagecheckerboard="0"
     showgrid="false"
     fit-margin-top="0"
     fit-margin-left="0"
     fit-margin-right="0"
     fit-margin-bottom="0"
     inkscape:window-maximized="1" />
  <g
     id="g3244"
     transform="translate(47.930908,94.046799)">
    <g
       id="g3264">
      <circle
         style="opacity:0.550678;fill:#000000;fill-rule:evenodd;stroke:#000000;stroke-width:10;stroke-opacity:0"
         id="path3056"
         cx="140.56934"
         cy="94.453445"
         r="183.50024" />
      <g
         id="g3258"
         transform="matrix(1.0439085,0,0,1.0439085,-6.1721929,-4.1473082)">
        <path
           id="path2659"
           d="m 132.0346,201.82765 c -1.39641,-0.75972 -3.17322,-2.56648 -3.94846,-4.01503 -1.40504,-2.62536 -1.34291,-3.04238 1.44649,-9.7088 0.48803,-1.16632 -0.1502,-2.39793 -2.07281,-4 -7.97458,-6.645 -8.9971,-9.27934 -5.74119,-14.79116 1.64511,-2.78495 1.64511,-2.78495 5.25,-0.72362 4.77746,2.73182 4.63853,2.56635 3.28822,3.91666 -1.87493,1.87493 -1.38909,5.11588 1.31667,8.78333 2.80241,3.79846 3.11996,7.29151 1,11 -1.53265,2.68109 -1.98956,7 -0.74055,7 0.4177,0 1.32152,0.9 2.00848,2 1.45913,2.33644 1.48401,2.32902 -1.80685,0.53862 z m 1.28892,-2.68002 c -1.76908,-1.78125 -1.55576,-3.65443 0.75,-6.58573 2.64956,-3.36836 2.52218,-6.04014 -0.5,-10.48768 -4.3887,-6.45855 -2.61182,-11.52406 3.12544,-8.90999 2.41083,1.09845 2.49111,1.44292 2.30306,9.88146 -0.14415,6.46869 -0.65013,9.39373 -1.94491,11.24334 -0.96254,1.375 -1.91511,3.31387 -2.11683,4.3086 -0.29441,1.45181 -0.61335,1.56032 -1.61676,0.55 z m 2.59791,-31.12154 c -2.00244,-1.68907 -2.77156,-3.42806 -3.13979,-7.09907 -0.62081,-6.1891 -4.18182,-10.58312 -5.22107,-6.44242 -0.36325,1.44731 0.037,4.12299 0.94019,6.28453 0.86502,2.07028 1.57276,3.95581 1.57276,4.19006 0,0.23426 -2.11588,-1.0582 -4.70195,-2.87212 -2.58608,-1.81392 -5.10363,-3.5759 -5.59457,-3.9155 -0.49093,-0.3396 0.68023,-2.678 2.6026,-5.19643 6.82598,-8.94252 9.65519,-21.84624 9.68805,-44.18611 0.0533,-36.213026 -9.65186,-48.804331 -38.31774,-49.712902 -8.57789,-0.271879 -9.08434,-1.005036 -1.85512,-2.685561 3.1233,-0.726051 10.17873,-3.183418 15.67873,-5.460815 9.38043,-3.884177 10.60117,-4.140534 19.70304,-4.137683 5.46706,0.0017 10.16352,0.463518 10.75782,1.057821 0.72227,0.72227 0.97351,20.183404 0.79696,61.73402 -0.25782,60.67923 -0.25782,60.67923 -2.90991,58.44218 z m -10.84791,-26.69001 c 0,-8.39778 -3.94177,-11.75402 -27.5,-23.41506 C 71.74046,105.13397 63.52636,98.863 64.26187,92.48958 c 1.16804,-10.12145 39.67816,-7.43829 53.57946,3.7331 12.5721,10.10321 15.77639,23.3809 10.08744,41.79957 -2.13838,6.92326 -2.85525,7.75527 -2.85525,3.31383 z m 3.1299,-34.64181 C 122.08199,92.77437 106.85646,86.16275 80.03597,85.77776 61.55142,85.51243 54.49293,83.08328 47.04784,74.425072 43.654,70.478219 39.07352,61.239192 39.07352,58.340502 c 0,-0.480427 4.68144,1.571315 10.4032,4.559427 20.8335,10.880008 34.48766,14.04534 56.40253,13.07534 7.53185,-0.333376 14.6335,-0.882484 15.78144,-1.22024 4.28819,-1.261697 9.81561,16.817621 9.22742,30.181381 -0.31459,7.14737 -0.31459,7.14737 -2.68469,1.75786 z M 59.5141,96.18486 C 51.9127,92.21815 43.19936,80.96961 40.47875,71.611045 c -2.12776,-7.319236 -1.31064,-7.588029 2.50646,-0.824504 3.30286,5.852358 11.34297,12.111309 18.65993,14.526129 3.96513,1.30861 3.94524,1.2579 1.78653,4.55251 -1.34494,2.05263 -1.42859,2.97384 -0.46256,5.09404 1.58539,3.47956 1.15604,3.63187 -3.45501,1.22564 z M 82.57352,74.142588 C 72.63731,72.308845 47.50791,62.418496 45.81119,59.673789 c -0.31112,-0.503272 7.87393,-0.824046 18.98306,-0.743951 19.53001,0.140807 19.53001,0.140807 21.65464,2.711419 4.21271,5.096997 19.41068,10.598338 29.37463,10.632992 2.3375,0.0081 4.25,0.4021 4.25,0.87549 0,2.097561 -27.56025,2.827245 -37.5,0.992849 z m -37,-16.75768 c -6.91778,-0.96816 -3.92566,-1.833503 8.5,-2.458259 22.34244,-1.123366 38.98,-6.931268 52.21291,-18.226676 5.85188,-4.995073 9.44264,-6.34186 18.78709,-7.046463 11.41637,-0.860833 15.01415,2.387004 13.53925,12.222343 -0.63974,4.266107 -0.64631,4.271815 -3.69501,3.209033 -6.46076,-2.252231 -18.59864,-0.44634 -27.50655,4.092464 -12.93438,6.590391 -21.0435,8.327287 -40.33769,8.639943 -9.075,0.147058 -18.75,-0.04752 -21.5,-0.432385 z m -12,-4.69505 c -1.1,-0.231283 -4.475,-0.91321 -7.5,-1.515394 C -2.33964,45.518283 -12.69252,18.816488 5.62734,-1.5596086 13.57179,-10.39575 23.06205,-14.212179 37.07352,-14.205436 c 13.71519,0.0066 20.33263,1.982401 36.90065,11.0176014 13.83102,7.542601 17.23948,8.691425 26.09935,8.796796 7.19529,0.085574 16.63837,-2.108633 19.77417,-4.594749 0.70079,-0.555601 1.46382,-0.820526 1.69562,-0.588722 1.66497,1.664964 -9.58057,8.420926 -17.31526,10.4024626 -9.15799,2.346168 -17.5123,0.87318 -31.73519,-5.5953826 -16.61945,-7.558517 -27.03974,-7.431214 -37.76681,0.461391 -8.15801,6.0023786 -7.64879,20.5778466 1.00589,28.7920206 10.5459,10.009137 39.23902,10.631442 63.74523,1.382524 8.60792,-3.248727 9.01856,-2.881988 2.54465,2.272615 -9.31993,7.420634 -21.87963,11.814677 -39.9483,13.976013 -7.88395,0.943061 -25.09379,1.288902 -28.5,0.572724 z"
           style="fill:#000000" />
        <path
           id="path2661"
           d="m 149.10408,201.82765 c 1.39641,-0.75972 3.17322,-2.56648 3.94846,-4.01503 1.40504,-2.62536 1.34291,-3.04238 -1.44649,-9.7088 -0.48803,-1.16632 0.1502,-2.39793 2.07281,-4 7.97458,-6.645 8.9971,-9.27934 5.74119,-14.79116 -1.64511,-2.78495 -1.64511,-2.78495 -5.25,-0.72362 -4.77746,2.73182 -4.63853,2.56635 -3.28822,3.91666 1.87493,1.87493 1.38909,5.11588 -1.31667,8.78333 -2.80241,3.79846 -3.11996,7.29151 -1,11 1.53265,2.68109 1.98956,7 0.74055,7 -0.4177,0 -1.32152,0.9 -2.00848,2 -1.45913,2.33644 -1.48401,2.32902 1.80685,0.53862 z m -1.28892,-2.68002 c 1.76908,-1.78125 1.55576,-3.65443 -0.75,-6.58573 -2.64956,-3.36836 -2.52218,-6.04014 0.5,-10.48768 4.3887,-6.45855 2.61182,-11.52406 -3.12544,-8.90999 -2.41083,1.09845 -2.49111,1.44292 -2.30306,9.88146 0.14415,6.46869 0.65013,9.39373 1.94491,11.24334 0.96254,1.375 1.91511,3.31387 2.11683,4.3086 0.29441,1.45181 0.61335,1.56032 1.61676,0.55 z m -2.59791,-31.12154 c 2.00244,-1.68907 2.77156,-3.42806 3.13979,-7.09907 0.62081,-6.1891 4.18182,-10.58312 5.22107,-6.44242 0.36325,1.44731 -0.037,4.12299 -0.94019,6.28453 -0.86502,2.07028 -1.57276,3.95581 -1.57276,4.19006 0,0.23426 2.11588,-1.0582 4.70195,-2.87212 2.58608,-1.81392 5.10363,-3.5759 5.59457,-3.9155 0.49093,-0.3396 -0.68023,-2.678 -2.6026,-5.19643 -6.82598,-8.94252 -9.65519,-21.84624 -9.68805,-44.18611 -0.0533,-36.213026 9.65186,-48.804331 38.31774,-49.712902 8.57789,-0.271879 9.08434,-1.005036 1.85512,-2.685561 -3.1233,-0.726051 -10.17873,-3.183418 -15.67873,-5.460815 -9.38043,-3.884177 -10.60117,-4.140534 -19.70304,-4.137683 -5.46706,0.0017 -10.16352,0.463518 -10.75782,1.057821 -0.72227,0.72227 -0.97351,20.183404 -0.79696,61.73402 0.25782,60.67923 0.25782,60.67923 2.90991,58.44218 z m 10.84791,-26.69001 c 0,-8.39778 3.94177,-11.75402 27.5,-23.41506 25.83306,-12.78705 34.04716,-19.05802 33.31165,-25.43144 -1.16804,-10.12145 -39.67816,-7.43829 -53.57946,3.7331 -12.5721,10.10321 -15.77639,23.3809 -10.08744,41.79957 2.13838,6.92326 2.85525,7.75527 2.85525,3.31383 z m -3.1299,-34.64181 c 6.12143,-13.9199 21.34696,-20.53152 48.16746,-20.91651 18.48454,-0.26533 25.54304,-2.69448 32.98812,-11.352688 3.39385,-3.946853 7.97432,-13.18588 7.97432,-16.08457 0,-0.480427 -4.68144,1.571315 -10.4032,4.559427 -20.8335,10.880008 -34.48765,14.04534 -56.40253,13.07534 -7.53185,-0.333376 -14.6335,-0.882484 -15.78144,-1.22024 -4.28819,-1.261697 -9.81561,16.817621 -9.22742,30.181381 0.31459,7.14737 0.31459,7.14737 2.68469,1.75786 z m 68.68932,-10.50941 c 7.6014,-3.96671 16.31474,-15.21525 19.03535,-24.573815 2.12776,-7.319236 1.31064,-7.588029 -2.50645,-0.824504 -3.30287,5.852358 -11.34298,12.111309 -18.65994,14.526129 -3.96513,1.30861 -3.94523,1.2579 -1.78653,4.55251 1.34494,2.05263 1.42859,2.97384 0.46256,5.09404 -1.58539,3.47956 -1.15604,3.63187 3.45501,1.22564 z M 198.56516,74.142588 c 9.93621,-1.833743 35.06562,-11.724092 36.76234,-14.468799 0.31111,-0.503272 -7.87394,-0.824046 -18.98307,-0.743951 -19.53001,0.140807 -19.53001,0.140807 -21.65464,2.711419 -4.21271,5.096997 -19.41068,10.598338 -29.37463,10.632992 -2.3375,0.0081 -4.25,0.4021 -4.25,0.87549 0,2.097561 27.56025,2.827245 37.5,0.992849 z m 37,-16.75768 c 6.91778,-0.96816 3.92566,-1.833503 -8.5,-2.458259 -22.34243,-1.123366 -38.98,-6.931268 -52.21291,-18.226676 -5.85188,-4.995073 -9.44264,-6.34186 -18.78709,-7.046463 -11.41637,-0.860833 -15.01415,2.387004 -13.53925,12.222343 0.63974,4.266107 0.64631,4.271815 3.69501,3.209033 6.46076,-2.252231 18.59864,-0.44634 27.50655,4.092464 12.93438,6.590391 21.0435,8.327287 40.33769,8.639943 9.075,0.147058 18.75,-0.04752 21.5,-0.432385 z m 12,-4.69505 c 1.1,-0.231283 4.475,-0.91321 7.5,-1.515394 28.41316,-5.656181 38.76604,-32.357976 20.44618,-52.7340726 -7.94445,-8.8361414 -17.4347,-12.6525704 -31.44618,-12.6458274 -13.71519,0.0066 -20.33263,1.9824 -36.90065,11.0176014 -13.83102,7.542601 -17.23948,8.691425 -26.09935,8.796796 -7.19529,0.085574 -16.63837,-2.108633 -19.77417,-4.594749 -0.70079,-0.555601 -1.46382,-0.820526 -1.69562,-0.588722 -1.66497,1.664964 9.58057,8.420926 17.31526,10.4024626 9.15799,2.346168 17.5123,0.87318 31.73519,-5.5953826 16.61945,-7.558517 27.03974,-7.431214 37.76681,0.461391 8.15801,6.0023786 7.64879,20.5778466 -1.00589,28.7920206 -10.5459,10.009137 -39.23902,10.631442 -63.74523,1.382524 -8.60792,-3.248727 -9.01856,-2.881988 -2.54465,2.272615 9.31993,7.420634 21.87963,11.814677 39.9483,13.976013 7.88395,0.943061 25.09379,1.288902 28.5,0.572724 z"
           style="fill:#000000" />
      </g>
    </g>
  </g>
</svg>
